Data basics
…
Hint: Type the name of the data frame that you want to print and then click the blue button. I’ve already loaded the nycflight13 package for you.

# checking code

The tibble display

You might notice that flights prints a little differently from mpg: flights shows only the first few rows of the data frame and only the columns that fit on one screen. (To see the whole dataset, you can run View(flights) which will open the dataset in a special viewer). flights prints differently because it’s a tibble. Tibbles are data frames, but slightly tweaked to be more user-friendly. For now, you don’t need to worry about the differences between tibbles and data frames that are not tibbles; we’ll come back to tibbles in more detail in a later tutorial.

Variable types

Type codes

flights

# A tibble: 336,776 × 19
    year month   day dep_time sched_dep_time dep_delay arr_time
   <int> <int> <int>    <int>          <int>     <dbl>    <int>
1   2013     1     1      517            515         2      830
2   2013     1     1      533            529         4      850
3   2013     1     1      542            540         2      923
4   2013     1     1      544            545        -1     1004
5   2013     1     1      554            600        -6      812
6   2013     1     1      554            558        -4      740
7   2013     1     1      555            600        -5      913
8   2013     1     1      557            600        -3      709
9   2013     1     1      557            600        -3      838
10  2013     1     1      558            600        -2      753
# ... with 336,766 more rows, and 12 more variables: sched_arr_time <int>,
#   arr_delay <dbl>, carrier <chr>, flight <int>, tailnum <chr>,
#   origin <chr>, dest <chr>, air_time <dbl>, distance <dbl>, hour <dbl>,
#   minute <dbl>, time_hour <dttm>
…
